___aldiv@counter 29 0 BANK0 1
_i 48 0 BANK0 1
__S0 2008 0 ABS 0
__S1 4A 0 ABS 0
__S2 0 0 ABS 0
_RX9 C6 0 ABS 0
_TX9 4C6 0 ABS 0
__Hintentry 0 0 CODE 0
__Lintentry 0 0 CODE 0
__CFG_BOREN$ON 0 0 ABS 0
_RCIF 65 0 ABS 0
_BRGH 4C2 0 ABS 0
_SYNC 4C4 0 ABS 0
_CREN C4 0 ABS 0
_SPEN C7 0 ABS 0
_TXEN 4C5 0 ABS 0
_OERR C1 0 ABS 0
_TRMT 4C1 0 ABS 0
_main 4C7 0 CODE 0
___sp 0 0 STACK 2
btemp 7E 0 ABS 0
start 0 0 CODE 0
__end_of___aldiv 623 0 CODE 0
_RCREG 1A 0 ABS 0
_TRISB 86 0 ABS 0
_TXREG 19 0 ABS 0
reset_vec 0 0 CODE 0
_PORTB 6 0 ABS 0
_SPBRG 99 0 ABS 0
wtemp0 7E 0 ABS 0
__size_of_send_data 0 0 ABS 0
__Hconfig 2008 0 CONFIG 0
__Lconfig 2007 0 CONFIG 0
__end_of__stringtab 8 0 STRING 0
__Hram 0 0 ABS 0
__Lram 0 0 ABS 0
__Hfunctab 0 0 ENTRY 0
__Lfunctab 0 0 ENTRY 0
_TRISC6 43E 0 ABS 0
_TRISC7 43F 0 ABS 0
__Hcommon 0 0 ABS 0
__Lcommon 0 0 ABS 0
UART_Write_Text@i 21 0 BANK0 1
__Heeprom_data 0 0 EEDATA 3
__Leeprom_data 0 0 EEDATA 3
__size_of_UART_Init 0 0 ABS 0
___int_sp 0 0 STACK 2
?___aldiv 20 0 BANK0 1
_gsm_init 501 0 CODE 0
_send_data 623 0 CODE 0
__Habs1 0 0 ABS 0
__Labs1 0 0 ABS 0
__Hsfr0 0 0 ABS 0
__Lsfr0 0 0 ABS 0
__Hsfr1 0 0 ABS 0
__Lsfr1 0 0 ABS 0
__Hsfr2 0 0 ABS 0
__Lsfr2 0 0 ABS 0
UART_Write_Text@text 23 0 BANK0 1
__Hsfr3 0 0 ABS 0
__Lsfr3 0 0 ABS 0
__end_of_UART_Init 7F5 0 CODE 0
__Hcode 0 0 ABS 0
__Lcode 0 0 ABS 0
stackhi 0 0 ABS 0
__end_of_send_data 702 0 CODE 0
__HcstackBANK0 0 0 ABS 0
__LcstackBANK0 0 0 ABS 0
__pcstackBANK0 20 0 BANK0 1
_UART_Write_Text 4A2 0 CODE 0
stacklo 0 0 ABS 0
__Hinit 0 0 CODE 0
__Linit 0 0 CODE 0
__end_of_main 501 0 CODE 0
__Htext 0 0 ABS 0
__Ltext 0 0 ABS 0
__HdataBANK0 0 0 ABS 0
__LdataBANK0 0 0 ABS 0
__pdataBANK0 48 0 BANK0 1
end_of_initialization 7FD 0 CODE 0
___aldiv@sign 2A 0 BANK0 1
_UART_Init 702 0 CODE 0
__stringtab 2 0 STRING 0
UART_Init@baudrate 2F 0 BANK0 1
__Hstrings 0 0 ABS 0
__Lstrings 0 0 ABS 0
__pstrings 2 0 STRING 0
__Hbank0 0 0 ABS 0
__Lbank0 0 0 ABS 0
__Hbank1 0 0 ABS 0
__Lbank1 0 0 ABS 0
__Hbank2 0 0 BANK2 1
__Lbank2 0 0 BANK2 1
__Hbank3 0 0 BANK3 1
__Lbank3 0 0 BANK3 1
___latbits 1 0 ABS 0
__end_of_UART_Write_Text 4C7 0 CODE 0
__Hpowerup 0 0 CODE 0
__Lpowerup 0 0 CODE 0
UART_Init@x 3F 0 BANK0 1
__ptext1 623 0 CODE 0
__ptext2 501 0 CODE 0
__ptext3 4A2 0 CODE 0
__ptext4 492 0 CODE 0
__ptext5 702 0 CODE 0
__ptext6 57D 0 CODE 0
__Hclrtext 0 0 ABS 0
__Lclrtext 0 0 ABS 0
__CFG_WDTE$ON 0 0 ABS 0
__end_of__initialization 7FD 0 CODE 0
_UART_Write 492 0 CODE 0
__Hidloc 0 0 IDLOC 0
__Lidloc 0 0 IDLOC 0
__Hstack 0 0 STACK 2
__Lstack 0 0 STACK 2
__Hspace_0 2008 0 ABS 0
__Lspace_0 0 0 ABS 0
__Hspace_1 4A 0 ABS 0
__Lspace_1 0 0 ABS 0
__Hspace_2 0 0 ABS 0
__Lspace_2 0 0 ABS 0
__Hcinit 800 0 CODE 0
__Lcinit 7F5 0 CODE 0
__CFG_FOSC$HS 0 0 ABS 0
___aldiv 57D 0 CODE 0
UART_Write@data 20 0 BANK0 1
__Hspace_3 0 0 ABS 0
__Lspace_3 0 0 ABS 0
__size_of_main 0 0 ABS 0
__HidataBANK0 0 0 ABS 0
__LidataBANK0 0 0 ABS 0
__pidataBANK0 490 0 CODE 0
__end_of_gsm_init 57D 0 CODE 0
__CFG_PWRTE$OFF 0 0 ABS 0
__Hend_init 2 0 CODE 0
__Lend_init 0 0 CODE 0
___aldiv@divisor 20 0 BANK0 1
__Hreset_vec 0 0 CODE 0
__Lreset_vec 0 0 CODE 0
__size_of_gsm_init 0 0 ABS 0
__size_of___aldiv 0 0 ABS 0
__size_of_UART_Write 0 0 ABS 0
intlevel0 0 0 ENTRY 0
intlevel1 0 0 ENTRY 0
__end_of_UART_Write 4A2 0 CODE 0
intlevel2 0 0 ENTRY 0
intlevel3 0 0 ENTRY 0
intlevel4 0 0 ENTRY 0
intlevel5 0 0 ENTRY 0
__HcstackCOMMON 0 0 ABS 0
__LcstackCOMMON 0 0 ABS 0
__pcstackCOMMON 0 0 COMMON 1
send_data@text 44 0 BANK0 1
start_initialization 7F5 0 CODE 0
___aldiv@quotient 2B 0 BANK0 1
__Hmaintext 0 0 ABS 0
__Lmaintext 0 0 ABS 0
__pmaintext 4C7 0 CODE 0
__initialization 7F5 0 CODE 0
__stringbase 7 0 STRING 0
__CFG_CP$OFF 0 0 ABS 0
___aldiv@dividend 24 0 BANK0 1
__size_of_UART_Write_Text 0 0 ABS 0
%segments
reset_vec 0 3 CODE 0 0
cinit FEA FFF CODE FEA 0
config 400E 400F CONFIG 400E 0
cstackBANK0 20 49 BANK0 20 1
text5 E04 FE9 CODE E04 0
text1 C46 E03 CODE C46 0
strings 4 1B1 STRING 4 0
text6 AFA C45 CODE AFA 0
text2 A02 AF9 CODE A02 0
maintext 98E A01 CODE 98E 0
text3 944 98D CODE 944 0
text4 924 943 CODE 924 0
idataBANK0 920 923 CODE 920 0
%locals
dist/default/production/rfid_16f73.X.production.o
/tmp/xcX1775uI
530 7F5 0 CODE 0
533 7F5 0 CODE 0
547 7F5 0 CODE 0
548 7F8 0 CODE 0
549 7F9 0 CODE 0
550 7FC 0 CODE 0
556 7FD 0 CODE 0
558 7FD 0 CODE 0
559 7FE 0 CODE 0
uart_test.c
62 4C7 0 CODE 0
63 4C7 0 CODE 0
64 4CB 0 CODE 0
65 4CB 0 CODE 0
66 4CF 0 CODE 0
67 4DC 0 CODE 0
68 4E0 0 CODE 0
69 4E3 0 CODE 0
70 4F2 0 CODE 0
71 4F6 0 CODE 0
72 4FD 0 CODE 0
73 4FE 0 CODE 0
74 4FF 0 CODE 0
34 623 0 CODE 0
35 626 0 CODE 0
36 629 0 CODE 0
37 636 0 CODE 0
38 63A 0 CODE 0
39 63E 0 CODE 0
40 648 0 CODE 0
41 64C 0 CODE 0
42 65A 0 CODE 0
43 65E 0 CODE 0
44 66C 0 CODE 0
45 670 0 CODE 0
46 67F 0 CODE 0
47 683 0 CODE 0
48 691 0 CODE 0
49 695 0 CODE 0
50 6A3 0 CODE 0
51 6A7 0 CODE 0
52 6B5 0 CODE 0
53 6BB 0 CODE 0
54 6CA 0 CODE 0
55 6CE 0 CODE 0
56 6DC 0 CODE 0
57 6E0 0 CODE 0
58 6EE 0 CODE 0
59 6F2 0 CODE 0
60 701 0 CODE 0
17 501 0 CODE 0
18 501 0 CODE 0
19 504 0 CODE 0
20 511 0 CODE 0
21 515 0 CODE 0
22 523 0 CODE 0
23 527 0 CODE 0
24 531 0 CODE 0
25 535 0 CODE 0
26 544 0 CODE 0
27 548 0 CODE 0
28 557 0 CODE 0
29 55B 0 CODE 0
30 56A 0 CODE 0
31 56E 0 CODE 0
32 57C 0 CODE 0
./uart.h
59 4A2 0 CODE 0
61 4A5 0 CODE 0
62 4A8 0 CODE 0
64 4C6 0 CODE 0
54 492 0 CODE 0
55 495 0 CODE 0
56 49D 0 CODE 0
57 4A1 0 CODE 0
5 702 0 CODE 0
7 702 0 CODE 0
8 764 0 CODE 0
9 76D 0 CODE 0
10 7CD 0 CODE 0
11 7D1 0 CODE 0
12 7D1 0 CODE 0
14 7DB 0 CODE 0
15 7DF 0 CODE 0
16 7E0 0 CODE 0
17 7E3 0 CODE 0
18 7E6 0 CODE 0
19 7E7 0 CODE 0
20 7EA 0 CODE 0
21 7ED 0 CODE 0
22 7EE 0 CODE 0
23 7EF 0 CODE 0
24 7F3 0 CODE 0
25 7F4 0 CODE 0
27 7F4 0 CODE 0
/opt/microchip/xc8/v2.00/pic/sources/c90/common/aldiv.c
5 57D 0 CODE 0
13 57D 0 CODE 0
14 580 0 CODE 0
15 584 0 CODE 0
16 58F 0 CODE 0
17 591 0 CODE 0
18 591 0 CODE 0
19 595 0 CODE 0
20 5A0 0 CODE 0
21 5A5 0 CODE 0
22 5A5 0 CODE 0
23 5AD 0 CODE 0
24 5B5 0 CODE 0
25 5B7 0 CODE 0
26 5B8 0 CODE 0
27 5C1 0 CODE 0
28 5C6 0 CODE 0
25 5C6 0 CODE 0
29 5CC 0 CODE 0
30 5CC 0 CODE 0
31 5D5 0 CODE 0
32 5E7 0 CODE 0
33 5F5 0 CODE 0
34 5F7 0 CODE 0
35 5F7 0 CODE 0
36 600 0 CODE 0
37 608 0 CODE 0
38 608 0 CODE 0
39 60D 0 CODE 0
40 619 0 CODE 0
41 622 0 CODE 0
