___aldiv@counter 9 0 COMRAM 1
__CFG_XINST$OFF 0 0 ABS 0
_i 23 0 COMRAM 1
_CS 7C22 0 ABS 0
__S0 30000E 0 ABS 0
__S1 25 0 ABS 0
__S2 0 0 ABS 0
_RX9 7D5E 0 ABS 0
_TX9 7D66 0 ABS 0
__Hintentry 0 0 ABS 0
__CFG_PWRT$OFF 0 0 ABS 0
__Lintentry 0 0 ABS 0
_RCIF 7CF5 0 ABS 0
_BRGH 7D62 0 ABS 0
_SYNC 7D64 0 ABS 0
_CREN 7D5C 0 ABS 0
_SPEN 7D5F 0 ABS 0
_TXEN 7D65 0 ABS 0
_OERR 7D59 0 ABS 0
_TRMT 7D61 0 ABS 0
_main DCE 0 CODE 0
___sp 0 0 STACK 2
start 0 0 CODE 0
_BRG16 7DC3 0 ABS 0
__end_of___aldiv CF4 0 CODE 0
_RCREG FAE 0 ABS 0
_TRISB F93 0 ABS 0
_TXREG FAD 0 ABS 0
_TRISD F95 0 ABS 0
_PORTB F81 0 ABS 0
_SPBRG FAF 0 ABS 0
__Hirdata 0 0 CODE 0
__Lirdata 0 0 CODE 0
__HRAM 0 0 ABS 0
_PORTD F83 0 ABS 0
__LRAM 1 0 ABS 0
__size_of_send_data 0 0 ABS 0
__CFG_WDTPS$32768 0 0 ABS 0
__Hconfig 30000E 0 CONFIG 0
__Lconfig 300000 0 CONFIG 0
__Hbigram 0 0 ABS 0
__Lbigram 0 0 ABS 0
__Hrparam 0 0 COMRAM 1
__Lrparam 0 0 COMRAM 1
__Hram 0 0 ABS 0
__Lram 0 0 ABS 0
__Hcomram 0 0 ABS 0
__Lcomram 0 0 ABS 0
__Hsfr 0 0 ABS 0
__Lsfr 0 0 ABS 0
__Hbss 0 0 RAM 1
__CFG_STVREN$ON 0 0 ABS 0
__Lbss 0 0 RAM 1
___param_bank 0 0 ABS 0
__Hnvrram 0 0 COMRAM 1
__Lnvrram 0 0 COMRAM 1
_ADCON0 FC2 0 ABS 0
_ADCON1 FC1 0 ABS 0
_TRISC6 7CA6 0 ABS 0
_TRISC7 7CA7 0 ABS 0
UART_Write_Text@i 6 0 COMRAM 1
__Heeprom_data 0 0 EEDATA 0
__Leeprom_data 0 0 EEDATA 0
__size_of_UART_Init 0 0 ABS 0
_PIR1bits F9E 0 ABS 0
__Hintsave_regs 0 0 BIGRAM 1
__Lintsave_regs 0 0 BIGRAM 1
?___aldiv 1 0 COMRAM 1
_gsm_init CF4 0 CODE 0
__Hbigbss 0 0 BIGRAM 1
__Lbigbss 0 0 BIGRAM 1
_send_data 8D4 0 CODE 0
__Hintret 0 0 ABS 0
__Lintret 0 0 ABS 0
__Hramtop 800 0 RAM 0
__Lramtop 800 0 RAM 0
__Hstruct 0 0 COMRAM 1
__Lstruct 0 0 COMRAM 1
__Hbigdata 0 0 BIGRAM 1
__Lbigdata 0 0 BIGRAM 1
__Hmediumconst 0 0 MEDIUMCONST 0
__Lmediumconst 0 0 MEDIUMCONST 0
__Hfarbss 0 0 FARRAM 0
__Lfarbss 0 0 FARRAM 0
__Hintcode 0 0 CODE 0
_SSPBUF FC9 0 ABS 0
__Lintcode 0 0 CODE 0
__Hfardata 0 0 FARRAM 0
__Lfardata 0 0 FARRAM 0
__Habs1 0 0 ABS 0
__Labs1 0 0 ABS 0
__CFG_EBTR0$OFF 0 0 ABS 0
UART_Write_Text@text 2 0 COMRAM 1
__HnvFARRAM 0 0 FARRAM 0
__LnvFARRAM 0 0 FARRAM 0
__CFG_EBTR1$OFF 0 0 ABS 0
__CFG_PBADEN$OFF 0 0 ABS 0
__CFG_EBTR2$OFF 0 0 ABS 0
__end_of_UART_Init BC0 0 CODE 0
__CFG_ICPRT$ON 0 0 ABS 0
__Hdata 0 0 ABS 0
__Ldata 0 0 ABS 0
__CFG_EBTR3$OFF 0 0 ABS 0
stackhi 7FF 0 ABS 0
__end_of_send_data A64 0 CODE 0
__CFG_CPUDIV$OSC1_PLL2 0 0 ABS 0
_UART_Write_Text E34 0 CODE 0
__Htemp 0 0 COMRAM 1
__Ltemp 0 0 COMRAM 1
stacklo 60 0 ABS 0
__Hrbit 0 0 COMRAM 1
__Lrbit 0 0 COMRAM 1
__CFG_BOR$ON 0 0 ABS 0
__Hinit 4 0 CODE 0
__Linit 0 0 CODE 0
__Hintcodelo 0 0 CODE 0
__Lintcodelo 0 0 CODE 0
__Hrbss 0 0 COMRAM 1
__end_of_main E34 0 CODE 0
__Lrbss 0 0 COMRAM 1
__CFG_WDT$ON 0 0 ABS 0
__Htext 0 0 ABS 0
__Ltext 0 0 ABS 0
__CFG_CCP2MX$ON 0 0 ABS 0
__CFG_LVP$ON 0 0 ABS 0
end_of_initialization EAA 0 CODE 0
___aldiv@sign A 0 COMRAM 1
_UART_Init A64 0 CODE 0
__CFG_USBDIV$1 0 0 ABS 0
_SSPCON1 FC6 0 ABS 0
__CFG_VREGEN$OFF 0 0 ABS 0
UART_Init@baudrate F 0 COMRAM 1
__CFG_PLLDIV$1 0 0 ABS 0
_TRISAbits F92 0 ABS 0
_TRISBbits F93 0 ABS 0
_TRISCbits F94 0 ABS 0
__Hibigdata 0 0 CODE 0
__Libigdata 0 0 CODE 0
__Hifardata 0 0 CODE 0
__Lifardata 0 0 CODE 0
__Hbank0 0 0 ABS 0
__Lbank0 0 0 ABS 0
__Hbank1 0 0 ABS 0
__Lbank1 0 0 ABS 0
__Hbank2 0 0 ABS 0
__Lbank2 0 0 ABS 0
__Hbank3 0 0 ABS 0
__Lbank3 0 0 ABS 0
__Hbank4 0 0 ABS 0
__Lbank4 0 0 ABS 0
__Hbank5 0 0 ABS 0
__Lbank5 0 0 ABS 0
__end_of_UART_Write_Text E92 0 CODE 0
__Hpowerup 0 0 CODE 0
_SSPSTAT FC7 0 ABS 0
__Lpowerup 0 0 CODE 0
__Hbank6 0 0 ABS 0
__Lbank6 0 0 ABS 0
__Hbank7 0 0 ABS 0
__Lbank7 0 0 ABS 0
UART_Init@x 1B 0 COMRAM 1
__Htext0 0 0 ABS 0
__Ltext0 0 0 ABS 0
__Htext1 0 0 ABS 0
__Ltext1 0 0 ABS 0
__ptext0 DCE 0 CODE 0
__Htext2 0 0 ABS 0
__Ltext2 0 0 ABS 0
__ptext1 8D4 0 CODE 0
__Htext3 0 0 ABS 0
__Ltext3 0 0 ABS 0
__ptext2 CF4 0 CODE 0
__Htext4 0 0 ABS 0
__Ltext4 0 0 ABS 0
__ptext3 E34 0 CODE 0
__Htext5 0 0 ABS 0
__Ltext5 0 0 ABS 0
__ptext4 EB8 0 CODE 0
__Htext6 0 0 ABS 0
__Ltext6 0 0 ABS 0
__ptext5 A64 0 CODE 0
__ptext6 BC0 0 CODE 0
__Hclrtext 0 0 ABS 0
__Lclrtext 0 0 ABS 0
__end_of__initialization EAA 0 CODE 0
___rparam_used 1 0 ABS 0
_UART_Write EB8 0 CODE 0
__Hidata 0 0 CODE 0
__Lidata 0 0 CODE 0
__Hrdata 0 0 COMRAM 1
__Lrdata 0 0 COMRAM 1
__Hidloc 200008 0 IDLOC 0
__Lidloc 200000 0 IDLOC 0
__Hstack 0 0 STACK 2
__Lstack 0 0 STACK 2
__Hparam 0 0 COMRAM 1
__Lparam 0 0 COMRAM 1
__Hspace_0 30000E 0 ABS 0
__HcstackCOMRAM 0 0 ABS 0
__Lspace_0 0 0 ABS 0
__LcstackCOMRAM 0 0 ABS 0
__pcstackCOMRAM 1 0 COMRAM 1
__Hspace_1 25 0 ABS 0
__Lspace_1 0 0 ABS 0
__Hsmallconst 8D4 0 SMALLCONST 0
__Lsmallconst 800 0 SMALLCONST 0
__psmallconst 800 0 SMALLCONST 0
__Hspace_2 0 0 ABS 0
__Lspace_2 0 0 ABS 0
__Hnvbit 0 0 COMRAM 1
__Lnvbit 0 0 COMRAM 1
__Hcinit 0 0 ABS 0
__Lcinit 0 0 ABS 0
__CFG_FOSC$HS 0 0 ABS 0
___aldiv BC0 0 CODE 0
__pcinit E92 0 CODE 0
__CFG_EBTRB$OFF 0 0 ABS 0
__ramtop 800 0 RAM 0
UART_Write@data 1 0 COMRAM 1
__mediumconst 0 0 MEDIUMCONST 0
__size_of_main 0 0 ABS 0
__Hconst 0 0 CONST 0
__Lconst 0 0 CONST 0
__CFG_MCLRE$OFF 0 0 ABS 0
__end_of_gsm_init DCE 0 CODE 0
__CFG_WRT0$OFF 0 0 ABS 0
__CFG_WRT1$OFF 0 0 ABS 0
__CFG_WRT2$OFF 0 0 ABS 0
__CFG_WRT3$OFF 0 0 ABS 0
__CFG_FCMEN$OFF 0 0 ABS 0
___inthi_sp 0 0 STACK 2
__CFG_BORV$3 0 0 ABS 0
___intlo_sp 0 0 STACK 2
___aldiv@divisor 5 0 COMRAM 1
__HidataCOMRAM 0 0 ABS 0
__LidataCOMRAM 0 0 ABS 0
__pidataCOMRAM ED6 0 CODE 0
__CFG_CP0$OFF 0 0 ABS 0
__smallconst 800 0 SMALLCONST 0
__CFG_CP1$OFF 0 0 ABS 0
__Hreset_vec 0 0 CODE 0
__Lreset_vec 0 0 CODE 0
__CFG_CP2$OFF 0 0 ABS 0
__CFG_CP3$OFF 0 0 ABS 0
__size_of_gsm_init 0 0 ABS 0
__accesstop 60 0 ABS 0
__size_of___aldiv 0 0 ABS 0
__Hintcode_body 0 0 ABS 0
__Lintcode_body 0 0 ABS 0
__size_of_UART_Write 0 0 ABS 0
intlevel0 0 0 CODE 0
intlevel1 0 0 CODE 0
__end_of_UART_Write ED6 0 CODE 0
__CFG_WRTB$OFF 0 0 ABS 0
intlevel2 0 0 CODE 0
intlevel3 0 0 CODE 0
__CFG_WRTC$OFF 0 0 ABS 0
__CFG_WRTD$OFF 0 0 ABS 0
__HdataCOMRAM 0 0 ABS 0
__LdataCOMRAM 0 0 ABS 0
__pdataCOMRAM 23 0 COMRAM 1
__CFG_CPB$OFF 0 0 ABS 0
send_data@text 1D 0 COMRAM 1
__CFG_CPD$OFF 0 0 ABS 0
start_initialization E92 0 CODE 0
___aldiv@quotient B 0 COMRAM 1
__CFG_IESO$OFF 0 0 ABS 0
__initialization E92 0 CODE 0
__CFG_LPT1OSC$OFF 0 0 ABS 0
__activetblptr 1 0 ABS 0
___aldiv@dividend 1 0 COMRAM 1
__size_of_UART_Write_Text 0 0 ABS 0
%segments
reset_vec 0 3 CODE 0 0
smallconst 800 8D3 SMALLCONST 800 0
config 300000 30000D CONFIG 300000 0
idloc 200000 200007 IDLOC 200000 0
cstackCOMRAM 1 24 COMRAM 1 1
text1 8D4 ED7 CODE 8D4 0
%locals
dist/default/production/RFID.X.production.o
/opt/microchip/xc8/v2.00/pic/include/pic18f4550.h
/tmp/xcXOwHtAo
849 E92 0 CODE 0
851 E92 0 CODE 0
854 E92 0 CODE 0
869 E92 0 CODE 0
870 E94 0 CODE 0
871 E96 0 CODE 0
872 E98 0 CODE 0
873 E9A 0 CODE 0
874 E9C 0 CODE 0
875 E9E 0 CODE 0
876 EA0 0 CODE 0
877 EA4 0 CODE 0
878 EA6 0 CODE 0
884 EAA 0 CODE 0
887 EAA 0 CODE 0
888 EAC 0 CODE 0
889 EAE 0 CODE 0
890 EB0 0 CODE 0
891 EB2 0 CODE 0
892 EB4 0 CODE 0
newmain.c
63 DCE 0 CODE 0
64 DCE 0 CODE 0
65 DD6 0 CODE 0
66 DD6 0 CODE 0
67 DDA 0 CODE 0
68 DF6 0 CODE 0
69 E02 0 CODE 0
70 E06 0 CODE 0
71 E1E 0 CODE 0
72 E20 0 CODE 0
73 E28 0 CODE 0
74 E2C 0 CODE 0
75 E30 0 CODE 0
newmain.c
35 8D4 0 CODE 0
36 8D4 0 CODE 0
37 8D8 0 CODE 0
38 8EC 0 CODE 0
39 8F0 0 CODE 0
40 8FC 0 CODE 0
41 90C 0 CODE 0
42 918 0 CODE 0
43 930 0 CODE 0
44 93C 0 CODE 0
45 954 0 CODE 0
46 960 0 CODE 0
47 976 0 CODE 0
48 982 0 CODE 0
49 99A 0 CODE 0
50 9A6 0 CODE 0
51 9BE 0 CODE 0
52 9CA 0 CODE 0
53 9E2 0 CODE 0
54 9EE 0 CODE 0
55 A04 0 CODE 0
56 A0A 0 CODE 0
57 A22 0 CODE 0
58 A28 0 CODE 0
59 A40 0 CODE 0
60 A4C 0 CODE 0
61 A62 0 CODE 0
newmain.c
18 CF4 0 CODE 0
19 CF4 0 CODE 0
20 CF8 0 CODE 0
21 D0C 0 CODE 0
22 D0E 0 CODE 0
23 D26 0 CODE 0
24 D32 0 CODE 0
25 D42 0 CODE 0
26 D4E 0 CODE 0
27 D64 0 CODE 0
28 D70 0 CODE 0
29 D86 0 CODE 0
30 D92 0 CODE 0
31 DA8 0 CODE 0
32 DB4 0 CODE 0
33 DCC 0 CODE 0
./uart.h
60 E34 0 CODE 0
62 E34 0 CODE 0
63 E40 0 CODE 0
65 E90 0 CODE 0
./uart.h
55 EB8 0 CODE 0
56 EBA 0 CODE 0
57 ED0 0 CODE 0
58 ED4 0 CODE 0
./uart.h
5 A64 0 CODE 0
7 A64 0 CODE 0
8 AEE 0 CODE 0
9 AFE 0 CODE 0
10 B88 0 CODE 0
11 B8E 0 CODE 0
12 B8E 0 CODE 0
14 B9E 0 CODE 0
15 BA2 0 CODE 0
16 BA4 0 CODE 0
17 BA6 0 CODE 0
18 BA8 0 CODE 0
19 BAA 0 CODE 0
20 BAC 0 CODE 0
21 BAE 0 CODE 0
22 BB0 0 CODE 0
23 BB2 0 CODE 0
24 BB4 0 CODE 0
25 BBA 0 CODE 0
26 BBE 0 CODE 0
28 BBE 0 CODE 0
/opt/microchip/xc8/v2.00/pic/sources/c99/common/aldiv.c
7 BC0 0 CODE 0
13 BC0 0 CODE 0
14 BC4 0 CODE 0
15 BD2 0 CODE 0
16 BE2 0 CODE 0
17 BEA 0 CODE 0
18 BEA 0 CODE 0
19 BF8 0 CODE 0
20 C08 0 CODE 0
21 C10 0 CODE 0
22 C10 0 CODE 0
23 C20 0 CODE 0
24 C36 0 CODE 0
25 C3A 0 CODE 0
26 C3E 0 CODE 0
27 C48 0 CODE 0
28 C4E 0 CODE 0
25 C4E 0 CODE 0
29 C64 0 CODE 0
30 C64 0 CODE 0
31 C6E 0 CODE 0
32 C8C 0 CODE 0
33 C9C 0 CODE 0
34 CA2 0 CODE 0
35 CA2 0 CODE 0
36 CAC 0 CODE 0
37 CBA 0 CODE 0
38 CBA 0 CODE 0
39 CCA 0 CODE 0
40 CDE 0 CODE 0
41 CF2 0 CODE 0
