# 1 "uart_test.c"
# 1 "<built-in>" 1
# 1 "<built-in>" 3
# 288 "<built-in>" 3
# 1 "<command line>" 1
# 1 "<built-in>" 2
# 1 "/opt/microchip/xc8/v2.00/pic/include/language_support.h" 1 3
# 2 "<built-in>" 2
# 1 "uart_test.c" 2








# 1 "/opt/microchip/xc8/v2.00/pic/include/xc.h" 1 3
# 18 "/opt/microchip/xc8/v2.00/pic/include/xc.h" 3
extern const char __xc8_OPTIM_SPEED;

extern double __fpnormalize(double);



# 1 "/opt/microchip/xc8/v2.00/pic/include/c90/xc8debug.h" 1 3
# 13 "/opt/microchip/xc8/v2.00/pic/include/c90/xc8debug.h" 3
#pragma intrinsic(__builtin_software_breakpoint)
extern void __builtin_software_breakpoint(void);
# 24 "/opt/microchip/xc8/v2.00/pic/include/xc.h" 2 3



# 1 "/opt/microchip/xc8/v2.00/pic/include/pic.h" 1 3




# 1 "/opt/microchip/xc8/v2.00/pic/include/htc.h" 1 3



# 1 "/opt/microchip/xc8/v2.00/pic/include/xc.h" 1 3
# 5 "/opt/microchip/xc8/v2.00/pic/include/htc.h" 2 3
# 6 "/opt/microchip/xc8/v2.00/pic/include/pic.h" 2 3







# 1 "/opt/microchip/xc8/v2.00/pic/include/pic_chip_select.h" 1 3
# 2388 "/opt/microchip/xc8/v2.00/pic/include/pic_chip_select.h" 3
# 1 "/opt/microchip/xc8/v2.00/pic/include/pic16f73.h" 1 3
# 44 "/opt/microchip/xc8/v2.00/pic/include/pic16f73.h" 3
# 1 "/opt/microchip/xc8/v2.00/pic/include/__at.h" 1 3
# 45 "/opt/microchip/xc8/v2.00/pic/include/pic16f73.h" 2 3







extern volatile unsigned char INDF __attribute__((address(0x000)));

__asm("INDF equ 00h");




extern volatile unsigned char TMR0 __attribute__((address(0x001)));

__asm("TMR0 equ 01h");




extern volatile unsigned char PCL __attribute__((address(0x002)));

__asm("PCL equ 02h");




extern volatile unsigned char STATUS __attribute__((address(0x003)));

__asm("STATUS equ 03h");


typedef union {
    struct {
        unsigned C :1;
        unsigned DC :1;
        unsigned Z :1;
        unsigned nPD :1;
        unsigned nTO :1;
        unsigned RP :2;
        unsigned IRP :1;
    };
    struct {
        unsigned :5;
        unsigned RP0 :1;
        unsigned RP1 :1;
    };
    struct {
        unsigned CARRY :1;
        unsigned :1;
        unsigned ZERO :1;
    };
} STATUSbits_t;
extern volatile STATUSbits_t STATUSbits __attribute__((address(0x003)));
# 159 "/opt/microchip/xc8/v2.00/pic/include/pic16f73.h" 3
extern volatile unsigned char FSR __attribute__((address(0x004)));

__asm("FSR equ 04h");




extern volatile unsigned char PORTA __attribute__((address(0x005)));

__asm("PORTA equ 05h");


typedef union {
    struct {
        unsigned RA0 :1;
        unsigned RA1 :1;
        unsigned RA2 :1;
        unsigned RA3 :1;
        unsigned RA4 :1;
        unsigned RA5 :1;
    };
} PORTAbits_t;
extern volatile PORTAbits_t PORTAbits __attribute__((address(0x005)));
# 216 "/opt/microchip/xc8/v2.00/pic/include/pic16f73.h" 3
extern volatile unsigned char PORTB __attribute__((address(0x006)));

__asm("PORTB equ 06h");


typedef union {
    struct {
        unsigned RB0 :1;
        unsigned RB1 :1;
        unsigned RB2 :1;
        unsigned RB3 :1;
        unsigned RB4 :1;
        unsigned RB5 :1;
        unsigned RB6 :1;
        unsigned RB7 :1;
    };
} PORTBbits_t;
extern volatile PORTBbits_t PORTBbits __attribute__((address(0x006)));
# 278 "/opt/microchip/xc8/v2.00/pic/include/pic16f73.h" 3
extern volatile unsigned char PORTC __attribute__((address(0x007)));

__asm("PORTC equ 07h");


typedef union {
    struct {
        unsigned RC0 :1;
        unsigned RC1 :1;
        unsigned RC2 :1;
        unsigned RC3 :1;
        unsigned RC4 :1;
        unsigned RC5 :1;
        unsigned RC6 :1;
        unsigned RC7 :1;
    };
} PORTCbits_t;
extern volatile PORTCbits_t PORTCbits __attribute__((address(0x007)));
# 340 "/opt/microchip/xc8/v2.00/pic/include/pic16f73.h" 3
extern volatile unsigned char PCLATH __attribute__((address(0x00A)));

__asm("PCLATH equ 0Ah");


typedef union {
    struct {
        unsigned PCLATH :5;
    };
} PCLATHbits_t;
extern volatile PCLATHbits_t PCLATHbits __attribute__((address(0x00A)));
# 360 "/opt/microchip/xc8/v2.00/pic/include/pic16f73.h" 3
extern volatile unsigned char INTCON __attribute__((address(0x00B)));

__asm("INTCON equ 0Bh");


typedef union {
    struct {
        unsigned RBIF :1;
        unsigned INTF :1;
        unsigned TMR0IF :1;
        unsigned RBIE :1;
        unsigned INTE :1;
        unsigned TMR0IE :1;
        unsigned PEIE :1;
        unsigned GIE :1;
    };
    struct {
        unsigned :2;
        unsigned T0IF :1;
        unsigned :2;
        unsigned T0IE :1;
    };
} INTCONbits_t;
extern volatile INTCONbits_t INTCONbits __attribute__((address(0x00B)));
# 438 "/opt/microchip/xc8/v2.00/pic/include/pic16f73.h" 3
extern volatile unsigned char PIR1 __attribute__((address(0x00C)));

__asm("PIR1 equ 0Ch");


typedef union {
    struct {
        unsigned TMR1IF :1;
        unsigned TMR2IF :1;
        unsigned CCP1IF :1;
        unsigned SSPIF :1;
        unsigned TXIF :1;
        unsigned RCIF :1;
        unsigned ADIF :1;
    };
} PIR1bits_t;
extern volatile PIR1bits_t PIR1bits __attribute__((address(0x00C)));
# 494 "/opt/microchip/xc8/v2.00/pic/include/pic16f73.h" 3
extern volatile unsigned char PIR2 __attribute__((address(0x00D)));

__asm("PIR2 equ 0Dh");


typedef union {
    struct {
        unsigned CCP2IF :1;
    };
} PIR2bits_t;
extern volatile PIR2bits_t PIR2bits __attribute__((address(0x00D)));
# 514 "/opt/microchip/xc8/v2.00/pic/include/pic16f73.h" 3
extern volatile unsigned short TMR1 __attribute__((address(0x00E)));

__asm("TMR1 equ 0Eh");




extern volatile unsigned char TMR1L __attribute__((address(0x00E)));

__asm("TMR1L equ 0Eh");




extern volatile unsigned char TMR1H __attribute__((address(0x00F)));

__asm("TMR1H equ 0Fh");




extern volatile unsigned char T1CON __attribute__((address(0x010)));

__asm("T1CON equ 010h");


typedef union {
    struct {
        unsigned TMR1ON :1;
        unsigned TMR1CS :1;
        unsigned nT1SYNC :1;
        unsigned T1OSCEN :1;
        unsigned T1CKPS :2;
    };
    struct {
        unsigned :2;
        unsigned T1INSYNC :1;
        unsigned :1;
        unsigned T1CKPS0 :1;
        unsigned T1CKPS1 :1;
    };
} T1CONbits_t;
extern volatile T1CONbits_t T1CONbits __attribute__((address(0x010)));
# 601 "/opt/microchip/xc8/v2.00/pic/include/pic16f73.h" 3
extern volatile unsigned char TMR2 __attribute__((address(0x011)));

__asm("TMR2 equ 011h");




extern volatile unsigned char T2CON __attribute__((address(0x012)));

__asm("T2CON equ 012h");


typedef union {
    struct {
        unsigned T2CKPS :2;
        unsigned TMR2ON :1;
        unsigned TOUTPS :4;
    };
    struct {
        unsigned T2CKPS0 :1;
        unsigned T2CKPS1 :1;
        unsigned :1;
        unsigned TOUTPS0 :1;
        unsigned TOUTPS1 :1;
        unsigned TOUTPS2 :1;
        unsigned TOUTPS3 :1;
    };
} T2CONbits_t;
extern volatile T2CONbits_t T2CONbits __attribute__((address(0x012)));
# 679 "/opt/microchip/xc8/v2.00/pic/include/pic16f73.h" 3
extern volatile unsigned char SSPBUF __attribute__((address(0x013)));

__asm("SSPBUF equ 013h");




extern volatile unsigned char SSPCON __attribute__((address(0x014)));

__asm("SSPCON equ 014h");


typedef union {
    struct {
        unsigned SSPM :4;
        unsigned CKP :1;
        unsigned SSPEN :1;
        unsigned SSPOV :1;
        unsigned WCOL :1;
    };
    struct {
        unsigned SSPM0 :1;
        unsigned SSPM1 :1;
        unsigned SSPM2 :1;
        unsigned SSPM3 :1;
    };
} SSPCONbits_t;
extern volatile SSPCONbits_t SSPCONbits __attribute__((address(0x014)));
# 756 "/opt/microchip/xc8/v2.00/pic/include/pic16f73.h" 3
extern volatile unsigned short CCPR1 __attribute__((address(0x015)));

__asm("CCPR1 equ 015h");




extern volatile unsigned char CCPR1L __attribute__((address(0x015)));

__asm("CCPR1L equ 015h");




extern volatile unsigned char CCPR1H __attribute__((address(0x016)));

__asm("CCPR1H equ 016h");




extern volatile unsigned char CCP1CON __attribute__((address(0x017)));

__asm("CCP1CON equ 017h");


typedef union {
    struct {
        unsigned CCP1M :4;
        unsigned CCP1Y :1;
        unsigned CCP1X :1;
    };
    struct {
        unsigned CCP1M0 :1;
        unsigned CCP1M1 :1;
        unsigned CCP1M2 :1;
        unsigned CCP1M3 :1;
    };
} CCP1CONbits_t;
extern volatile CCP1CONbits_t CCP1CONbits __attribute__((address(0x017)));
# 835 "/opt/microchip/xc8/v2.00/pic/include/pic16f73.h" 3
extern volatile unsigned char RCSTA __attribute__((address(0x018)));

__asm("RCSTA equ 018h");


typedef union {
    struct {
        unsigned RX9D :1;
        unsigned OERR :1;
        unsigned FERR :1;
        unsigned :1;
        unsigned CREN :1;
        unsigned SREN :1;
        unsigned RX9 :1;
        unsigned SPEN :1;
    };
    struct {
        unsigned RCD8 :1;
        unsigned :5;
        unsigned RC9 :1;
    };
    struct {
        unsigned :6;
        unsigned nRC8 :1;
    };
    struct {
        unsigned :6;
        unsigned RC8_9 :1;
    };
} RCSTAbits_t;
extern volatile RCSTAbits_t RCSTAbits __attribute__((address(0x018)));
# 925 "/opt/microchip/xc8/v2.00/pic/include/pic16f73.h" 3
extern volatile unsigned char TXREG __attribute__((address(0x019)));

__asm("TXREG equ 019h");




extern volatile unsigned char RCREG __attribute__((address(0x01A)));

__asm("RCREG equ 01Ah");




extern volatile unsigned short CCPR2 __attribute__((address(0x01B)));

__asm("CCPR2 equ 01Bh");




extern volatile unsigned char CCPR2L __attribute__((address(0x01B)));

__asm("CCPR2L equ 01Bh");




extern volatile unsigned char CCPR2H __attribute__((address(0x01C)));

__asm("CCPR2H equ 01Ch");




extern volatile unsigned char CCP2CON __attribute__((address(0x01D)));

__asm("CCP2CON equ 01Dh");


typedef union {
    struct {
        unsigned CCP2M :4;
        unsigned CCP2Y :1;
        unsigned CCP2X :1;
    };
    struct {
        unsigned CCP2M0 :1;
        unsigned CCP2M1 :1;
        unsigned CCP2M2 :1;
        unsigned CCP2M3 :1;
    };
} CCP2CONbits_t;
extern volatile CCP2CONbits_t CCP2CONbits __attribute__((address(0x01D)));
# 1018 "/opt/microchip/xc8/v2.00/pic/include/pic16f73.h" 3
extern volatile unsigned char ADRES __attribute__((address(0x01E)));

__asm("ADRES equ 01Eh");


typedef union {
    struct {
        unsigned ADRES :8;
    };
} ADRESbits_t;
extern volatile ADRESbits_t ADRESbits __attribute__((address(0x01E)));
# 1038 "/opt/microchip/xc8/v2.00/pic/include/pic16f73.h" 3
extern volatile unsigned char ADCON0 __attribute__((address(0x01F)));

__asm("ADCON0 equ 01Fh");


typedef union {
    struct {
        unsigned ADON :1;
        unsigned :1;
        unsigned GO_nDONE :1;
        unsigned CHS :3;
        unsigned ADCS :2;
    };
    struct {
        unsigned :2;
        unsigned GO :1;
        unsigned CHS0 :1;
        unsigned CHS1 :1;
        unsigned CHS2 :1;
        unsigned ADCS0 :1;
        unsigned ADCS1 :1;
    };
    struct {
        unsigned :2;
        unsigned nDONE :1;
    };
    struct {
        unsigned :2;
        unsigned GO_DONE :1;
    };
} ADCON0bits_t;
extern volatile ADCON0bits_t ADCON0bits __attribute__((address(0x01F)));
# 1134 "/opt/microchip/xc8/v2.00/pic/include/pic16f73.h" 3
extern volatile unsigned char OPTION_REG __attribute__((address(0x081)));

__asm("OPTION_REG equ 081h");


typedef union {
    struct {
        unsigned PS :3;
        unsigned PSA :1;
        unsigned T0SE :1;
        unsigned T0CS :1;
        unsigned INTEDG :1;
        unsigned nRBPU :1;
    };
    struct {
        unsigned PS0 :1;
        unsigned PS1 :1;
        unsigned PS2 :1;
    };
} OPTION_REGbits_t;
extern volatile OPTION_REGbits_t OPTION_REGbits __attribute__((address(0x081)));
# 1204 "/opt/microchip/xc8/v2.00/pic/include/pic16f73.h" 3
extern volatile unsigned char TRISA __attribute__((address(0x085)));

__asm("TRISA equ 085h");


typedef union {
    struct {
        unsigned TRISA0 :1;
        unsigned TRISA1 :1;
        unsigned TRISA2 :1;
        unsigned TRISA3 :1;
        unsigned TRISA4 :1;
        unsigned TRISA5 :1;
    };
} TRISAbits_t;
extern volatile TRISAbits_t TRISAbits __attribute__((address(0x085)));
# 1254 "/opt/microchip/xc8/v2.00/pic/include/pic16f73.h" 3
extern volatile unsigned char TRISB __attribute__((address(0x086)));

__asm("TRISB equ 086h");


typedef union {
    struct {
        unsigned TRISB0 :1;
        unsigned TRISB1 :1;
        unsigned TRISB2 :1;
        unsigned TRISB3 :1;
        unsigned TRISB4 :1;
        unsigned TRISB5 :1;
        unsigned TRISB6 :1;
        unsigned TRISB7 :1;
    };
} TRISBbits_t;
extern volatile TRISBbits_t TRISBbits __attribute__((address(0x086)));
# 1316 "/opt/microchip/xc8/v2.00/pic/include/pic16f73.h" 3
extern volatile unsigned char TRISC __attribute__((address(0x087)));

__asm("TRISC equ 087h");


typedef union {
    struct {
        unsigned TRISC0 :1;
        unsigned TRISC1 :1;
        unsigned TRISC2 :1;
        unsigned TRISC3 :1;
        unsigned TRISC4 :1;
        unsigned TRISC5 :1;
        unsigned TRISC6 :1;
        unsigned TRISC7 :1;
    };
} TRISCbits_t;
extern volatile TRISCbits_t TRISCbits __attribute__((address(0x087)));
# 1378 "/opt/microchip/xc8/v2.00/pic/include/pic16f73.h" 3
extern volatile unsigned char PIE1 __attribute__((address(0x08C)));

__asm("PIE1 equ 08Ch");


typedef union {
    struct {
        unsigned TMR1IE :1;
        unsigned TMR2IE :1;
        unsigned CCP1IE :1;
        unsigned SSPIE :1;
        unsigned TXIE :1;
        unsigned RCIE :1;
        unsigned ADIE :1;
    };
} PIE1bits_t;
extern volatile PIE1bits_t PIE1bits __attribute__((address(0x08C)));
# 1434 "/opt/microchip/xc8/v2.00/pic/include/pic16f73.h" 3
extern volatile unsigned char PIE2 __attribute__((address(0x08D)));

__asm("PIE2 equ 08Dh");


typedef union {
    struct {
        unsigned CCP2IE :1;
    };
} PIE2bits_t;
extern volatile PIE2bits_t PIE2bits __attribute__((address(0x08D)));
# 1454 "/opt/microchip/xc8/v2.00/pic/include/pic16f73.h" 3
extern volatile unsigned char PCON __attribute__((address(0x08E)));

__asm("PCON equ 08Eh");


typedef union {
    struct {
        unsigned nBOR :1;
        unsigned nPOR :1;
    };
    struct {
        unsigned nBO :1;
    };
} PCONbits_t;
extern volatile PCONbits_t PCONbits __attribute__((address(0x08E)));
# 1488 "/opt/microchip/xc8/v2.00/pic/include/pic16f73.h" 3
extern volatile unsigned char PR2 __attribute__((address(0x092)));

__asm("PR2 equ 092h");




extern volatile unsigned char SSPADD __attribute__((address(0x093)));

__asm("SSPADD equ 093h");




extern volatile unsigned char SSPSTAT __attribute__((address(0x094)));

__asm("SSPSTAT equ 094h");


typedef union {
    struct {
        unsigned BF :1;
        unsigned UA :1;
        unsigned R_nW :1;
        unsigned S :1;
        unsigned P :1;
        unsigned D_nA :1;
        unsigned CKE :1;
        unsigned SMP :1;
    };
    struct {
        unsigned :2;
        unsigned R :1;
        unsigned :2;
        unsigned D :1;
    };
    struct {
        unsigned :2;
        unsigned I2C_READ :1;
        unsigned I2C_START :1;
        unsigned I2C_STOP :1;
        unsigned I2C_DATA :1;
    };
    struct {
        unsigned :2;
        unsigned nW :1;
        unsigned :2;
        unsigned nA :1;
    };
    struct {
        unsigned :2;
        unsigned nWRITE :1;
        unsigned :2;
        unsigned nADDRESS :1;
    };
    struct {
        unsigned :2;
        unsigned R_W :1;
        unsigned :2;
        unsigned D_A :1;
    };
    struct {
        unsigned :2;
        unsigned READ_WRITE :1;
        unsigned :2;
        unsigned DATA_ADDRESS :1;
    };
} SSPSTATbits_t;
extern volatile SSPSTATbits_t SSPSTATbits __attribute__((address(0x094)));
# 1671 "/opt/microchip/xc8/v2.00/pic/include/pic16f73.h" 3
extern volatile unsigned char TXSTA __attribute__((address(0x098)));

__asm("TXSTA equ 098h");


typedef union {
    struct {
        unsigned TX9D :1;
        unsigned TRMT :1;
        unsigned BRGH :1;
        unsigned :1;
        unsigned SYNC :1;
        unsigned TXEN :1;
        unsigned TX9 :1;
        unsigned CSRC :1;
    };
    struct {
        unsigned TXD8 :1;
        unsigned :5;
        unsigned nTX8 :1;
    };
    struct {
        unsigned :6;
        unsigned TX8_9 :1;
    };
} TXSTAbits_t;
extern volatile TXSTAbits_t TXSTAbits __attribute__((address(0x098)));
# 1752 "/opt/microchip/xc8/v2.00/pic/include/pic16f73.h" 3
extern volatile unsigned char SPBRG __attribute__((address(0x099)));

__asm("SPBRG equ 099h");




extern volatile unsigned char ADCON1 __attribute__((address(0x09F)));

__asm("ADCON1 equ 09Fh");


typedef union {
    struct {
        unsigned PCFG :3;
    };
    struct {
        unsigned PCFG0 :1;
        unsigned PCFG1 :1;
        unsigned PCFG2 :1;
    };
} ADCON1bits_t;
extern volatile ADCON1bits_t ADCON1bits __attribute__((address(0x09F)));
# 1799 "/opt/microchip/xc8/v2.00/pic/include/pic16f73.h" 3
extern volatile unsigned char PMDATA __attribute__((address(0x10C)));

__asm("PMDATA equ 010Ch");




extern volatile unsigned char PMADR __attribute__((address(0x10D)));

__asm("PMADR equ 010Dh");




extern volatile unsigned char PMDATH __attribute__((address(0x10E)));

__asm("PMDATH equ 010Eh");




extern volatile unsigned char PMADRH __attribute__((address(0x10F)));

__asm("PMADRH equ 010Fh");




extern volatile unsigned char PMCON1 __attribute__((address(0x18C)));

__asm("PMCON1 equ 018Ch");


typedef union {
    struct {
        unsigned RD :1;
    };
} PMCON1bits_t;
extern volatile PMCON1bits_t PMCON1bits __attribute__((address(0x18C)));
# 1853 "/opt/microchip/xc8/v2.00/pic/include/pic16f73.h" 3
extern volatile __bit ADCS0 __attribute__((address(0xFE)));


extern volatile __bit ADCS1 __attribute__((address(0xFF)));


extern volatile __bit ADIE __attribute__((address(0x466)));


extern volatile __bit ADIF __attribute__((address(0x66)));


extern volatile __bit ADON __attribute__((address(0xF8)));


extern volatile __bit BF __attribute__((address(0x4A0)));


extern volatile __bit BRGH __attribute__((address(0x4C2)));


extern volatile __bit CARRY __attribute__((address(0x18)));


extern volatile __bit CCP1IE __attribute__((address(0x462)));


extern volatile __bit CCP1IF __attribute__((address(0x62)));


extern volatile __bit CCP1M0 __attribute__((address(0xB8)));


extern volatile __bit CCP1M1 __attribute__((address(0xB9)));


extern volatile __bit CCP1M2 __attribute__((address(0xBA)));


extern volatile __bit CCP1M3 __attribute__((address(0xBB)));


extern volatile __bit CCP1X __attribute__((address(0xBD)));


extern volatile __bit CCP1Y __attribute__((address(0xBC)));


extern volatile __bit CCP2IE __attribute__((address(0x468)));


extern volatile __bit CCP2IF __attribute__((address(0x68)));


extern volatile __bit CCP2M0 __attribute__((address(0xE8)));


extern volatile __bit CCP2M1 __attribute__((address(0xE9)));


extern volatile __bit CCP2M2 __attribute__((address(0xEA)));


extern volatile __bit CCP2M3 __attribute__((address(0xEB)));


extern volatile __bit CCP2X __attribute__((address(0xED)));


extern volatile __bit CCP2Y __attribute__((address(0xEC)));


extern volatile __bit CHS0 __attribute__((address(0xFB)));


extern volatile __bit CHS1 __attribute__((address(0xFC)));


extern volatile __bit CHS2 __attribute__((address(0xFD)));


extern volatile __bit CKE __attribute__((address(0x4A6)));


extern volatile __bit CKP __attribute__((address(0xA4)));


extern volatile __bit CREN __attribute__((address(0xC4)));


extern volatile __bit CSRC __attribute__((address(0x4C7)));


extern volatile __bit DATA_ADDRESS __attribute__((address(0x4A5)));


extern volatile __bit DC __attribute__((address(0x19)));


extern volatile __bit D_A __attribute__((address(0x4A5)));


extern volatile __bit D_nA __attribute__((address(0x4A5)));


extern volatile __bit FERR __attribute__((address(0xC2)));


extern volatile __bit GIE __attribute__((address(0x5F)));


extern volatile __bit GO __attribute__((address(0xFA)));


extern volatile __bit GO_DONE __attribute__((address(0xFA)));


extern volatile __bit GO_nDONE __attribute__((address(0xFA)));


extern volatile __bit I2C_DATA __attribute__((address(0x4A5)));


extern volatile __bit I2C_READ __attribute__((address(0x4A2)));


extern volatile __bit I2C_START __attribute__((address(0x4A3)));


extern volatile __bit I2C_STOP __attribute__((address(0x4A4)));


extern volatile __bit INTE __attribute__((address(0x5C)));


extern volatile __bit INTEDG __attribute__((address(0x40E)));


extern volatile __bit INTF __attribute__((address(0x59)));


extern volatile __bit IRP __attribute__((address(0x1F)));


extern volatile __bit OERR __attribute__((address(0xC1)));


extern volatile __bit PCFG0 __attribute__((address(0x4F8)));


extern volatile __bit PCFG1 __attribute__((address(0x4F9)));


extern volatile __bit PCFG2 __attribute__((address(0x4FA)));


extern volatile __bit PEIE __attribute__((address(0x5E)));


extern volatile __bit PS0 __attribute__((address(0x408)));


extern volatile __bit PS1 __attribute__((address(0x409)));


extern volatile __bit PS2 __attribute__((address(0x40A)));


extern volatile __bit PSA __attribute__((address(0x40B)));


extern volatile __bit RA0 __attribute__((address(0x28)));


extern volatile __bit RA1 __attribute__((address(0x29)));


extern volatile __bit RA2 __attribute__((address(0x2A)));


extern volatile __bit RA3 __attribute__((address(0x2B)));


extern volatile __bit RA4 __attribute__((address(0x2C)));


extern volatile __bit RA5 __attribute__((address(0x2D)));


extern volatile __bit RB0 __attribute__((address(0x30)));


extern volatile __bit RB1 __attribute__((address(0x31)));


extern volatile __bit RB2 __attribute__((address(0x32)));


extern volatile __bit RB3 __attribute__((address(0x33)));


extern volatile __bit RB4 __attribute__((address(0x34)));


extern volatile __bit RB5 __attribute__((address(0x35)));


extern volatile __bit RB6 __attribute__((address(0x36)));


extern volatile __bit RB7 __attribute__((address(0x37)));


extern volatile __bit RBIE __attribute__((address(0x5B)));


extern volatile __bit RBIF __attribute__((address(0x58)));


extern volatile __bit RC0 __attribute__((address(0x38)));


extern volatile __bit RC1 __attribute__((address(0x39)));


extern volatile __bit RC2 __attribute__((address(0x3A)));


extern volatile __bit RC3 __attribute__((address(0x3B)));


extern volatile __bit RC4 __attribute__((address(0x3C)));


extern volatile __bit RC5 __attribute__((address(0x3D)));


extern volatile __bit RC6 __attribute__((address(0x3E)));


extern volatile __bit RC7 __attribute__((address(0x3F)));


extern volatile __bit RC8_9 __attribute__((address(0xC6)));


extern volatile __bit RC9 __attribute__((address(0xC6)));


extern volatile __bit RCD8 __attribute__((address(0xC0)));


extern volatile __bit RCIE __attribute__((address(0x465)));


extern volatile __bit RCIF __attribute__((address(0x65)));


extern volatile __bit RD __attribute__((address(0xC60)));


extern volatile __bit READ_WRITE __attribute__((address(0x4A2)));


extern volatile __bit RP0 __attribute__((address(0x1D)));


extern volatile __bit RP1 __attribute__((address(0x1E)));


extern volatile __bit RX9 __attribute__((address(0xC6)));


extern volatile __bit RX9D __attribute__((address(0xC0)));


extern volatile __bit R_W __attribute__((address(0x4A2)));


extern volatile __bit R_nW __attribute__((address(0x4A2)));


extern volatile __bit SMP __attribute__((address(0x4A7)));


extern volatile __bit SPEN __attribute__((address(0xC7)));


extern volatile __bit SREN __attribute__((address(0xC5)));


extern volatile __bit SSPEN __attribute__((address(0xA5)));


extern volatile __bit SSPIE __attribute__((address(0x463)));


extern volatile __bit SSPIF __attribute__((address(0x63)));


extern volatile __bit SSPM0 __attribute__((address(0xA0)));


extern volatile __bit SSPM1 __attribute__((address(0xA1)));


extern volatile __bit SSPM2 __attribute__((address(0xA2)));


extern volatile __bit SSPM3 __attribute__((address(0xA3)));


extern volatile __bit SSPOV __attribute__((address(0xA6)));


extern volatile __bit SYNC __attribute__((address(0x4C4)));


extern volatile __bit T0CS __attribute__((address(0x40D)));


extern volatile __bit T0IE __attribute__((address(0x5D)));


extern volatile __bit T0IF __attribute__((address(0x5A)));


extern volatile __bit T0SE __attribute__((address(0x40C)));


extern volatile __bit T1CKPS0 __attribute__((address(0x84)));


extern volatile __bit T1CKPS1 __attribute__((address(0x85)));


extern volatile __bit T1INSYNC __attribute__((address(0x82)));


extern volatile __bit T1OSCEN __attribute__((address(0x83)));


extern volatile __bit T2CKPS0 __attribute__((address(0x90)));


extern volatile __bit T2CKPS1 __attribute__((address(0x91)));


extern volatile __bit TMR0IE __attribute__((address(0x5D)));


extern volatile __bit TMR0IF __attribute__((address(0x5A)));


extern volatile __bit TMR1CS __attribute__((address(0x81)));


extern volatile __bit TMR1IE __attribute__((address(0x460)));


extern volatile __bit TMR1IF __attribute__((address(0x60)));


extern volatile __bit TMR1ON __attribute__((address(0x80)));


extern volatile __bit TMR2IE __attribute__((address(0x461)));


extern volatile __bit TMR2IF __attribute__((address(0x61)));


extern volatile __bit TMR2ON __attribute__((address(0x92)));


extern volatile __bit TOUTPS0 __attribute__((address(0x93)));


extern volatile __bit TOUTPS1 __attribute__((address(0x94)));


extern volatile __bit TOUTPS2 __attribute__((address(0x95)));


extern volatile __bit TOUTPS3 __attribute__((address(0x96)));


extern volatile __bit TRISA0 __attribute__((address(0x428)));


extern volatile __bit TRISA1 __attribute__((address(0x429)));


extern volatile __bit TRISA2 __attribute__((address(0x42A)));


extern volatile __bit TRISA3 __attribute__((address(0x42B)));


extern volatile __bit TRISA4 __attribute__((address(0x42C)));


extern volatile __bit TRISA5 __attribute__((address(0x42D)));


extern volatile __bit TRISB0 __attribute__((address(0x430)));


extern volatile __bit TRISB1 __attribute__((address(0x431)));


extern volatile __bit TRISB2 __attribute__((address(0x432)));


extern volatile __bit TRISB3 __attribute__((address(0x433)));


extern volatile __bit TRISB4 __attribute__((address(0x434)));


extern volatile __bit TRISB5 __attribute__((address(0x435)));


extern volatile __bit TRISB6 __attribute__((address(0x436)));


extern volatile __bit TRISB7 __attribute__((address(0x437)));


extern volatile __bit TRISC0 __attribute__((address(0x438)));


extern volatile __bit TRISC1 __attribute__((address(0x439)));


extern volatile __bit TRISC2 __attribute__((address(0x43A)));


extern volatile __bit TRISC3 __attribute__((address(0x43B)));


extern volatile __bit TRISC4 __attribute__((address(0x43C)));


extern volatile __bit TRISC5 __attribute__((address(0x43D)));


extern volatile __bit TRISC6 __attribute__((address(0x43E)));


extern volatile __bit TRISC7 __attribute__((address(0x43F)));


extern volatile __bit TRMT __attribute__((address(0x4C1)));


extern volatile __bit TX8_9 __attribute__((address(0x4C6)));


extern volatile __bit TX9 __attribute__((address(0x4C6)));


extern volatile __bit TX9D __attribute__((address(0x4C0)));


extern volatile __bit TXD8 __attribute__((address(0x4C0)));


extern volatile __bit TXEN __attribute__((address(0x4C5)));


extern volatile __bit TXIE __attribute__((address(0x464)));


extern volatile __bit TXIF __attribute__((address(0x64)));


extern volatile __bit UA __attribute__((address(0x4A1)));


extern volatile __bit WCOL __attribute__((address(0xA7)));


extern volatile __bit ZERO __attribute__((address(0x1A)));


extern volatile __bit nA __attribute__((address(0x4A5)));


extern volatile __bit nADDRESS __attribute__((address(0x4A5)));


extern volatile __bit nBO __attribute__((address(0x470)));


extern volatile __bit nBOR __attribute__((address(0x470)));


extern volatile __bit nDONE __attribute__((address(0xFA)));


extern volatile __bit nPD __attribute__((address(0x1B)));


extern volatile __bit nPOR __attribute__((address(0x471)));


extern volatile __bit nRBPU __attribute__((address(0x40F)));


extern volatile __bit nRC8 __attribute__((address(0xC6)));


extern volatile __bit nT1SYNC __attribute__((address(0x82)));


extern volatile __bit nTO __attribute__((address(0x1C)));


extern volatile __bit nTX8 __attribute__((address(0x4C6)));


extern volatile __bit nW __attribute__((address(0x4A2)));


extern volatile __bit nWRITE __attribute__((address(0x4A2)));
# 2389 "/opt/microchip/xc8/v2.00/pic/include/pic_chip_select.h" 2 3
# 14 "/opt/microchip/xc8/v2.00/pic/include/pic.h" 2 3
# 30 "/opt/microchip/xc8/v2.00/pic/include/pic.h" 3
#pragma intrinsic(__nop)
extern void __nop(void);
# 78 "/opt/microchip/xc8/v2.00/pic/include/pic.h" 3
__attribute__((__unsupported__("The " "FLASH_READ" " macro function is no longer supported. Please use the MPLAB X MCC."))) unsigned char __flash_read(unsigned short addr);

__attribute__((__unsupported__("The " "FLASH_WRITE" " macro function is no longer supported. Please use the MPLAB X MCC."))) void __flash_write(unsigned short addr, unsigned short data);

__attribute__((__unsupported__("The " "FLASH_ERASE" " macro function is no longer supported. Please use the MPLAB X MCC."))) void __flash_erase(unsigned short addr);



# 1 "/opt/microchip/xc8/v2.00/pic/include/eeprom_routines.h" 1 3
# 86 "/opt/microchip/xc8/v2.00/pic/include/pic.h" 2 3





#pragma intrinsic(_delay)
extern __attribute__((nonreentrant)) void _delay(unsigned long);
#pragma intrinsic(_delaywdt)
extern __attribute__((nonreentrant)) void _delaywdt(unsigned long);
# 137 "/opt/microchip/xc8/v2.00/pic/include/pic.h" 3
extern __bank0 unsigned char __resetbits;
extern __bank0 __bit __powerdown;
extern __bank0 __bit __timeout;
# 28 "/opt/microchip/xc8/v2.00/pic/include/xc.h" 2 3
# 10 "uart_test.c" 2

# 1 "./16f73_config.h" 1






#pragma config FOSC = HS
#pragma config WDTE = ON
#pragma config PWRTE = OFF
#pragma config CP = OFF
#pragma config BOREN = ON
# 12 "uart_test.c" 2
# 1 "./uart.h" 1

# 1 "./16f73_config.h" 1






#pragma config FOSC = HS
#pragma config WDTE = ON
#pragma config PWRTE = OFF
#pragma config CP = OFF
#pragma config BOREN = ON
# 3 "./uart.h" 2


char UART_Init(const long int baudrate) {
    unsigned int x;
    x = (8000000 - baudrate * 64) / (baudrate * 64);
    if (x > 255) {
        x = (8000000 - baudrate * 16) / (baudrate * 16);
        BRGH = 1;
    }
    if (x < 256) {

        SPBRG = 16;
        SYNC = 0;
        SPEN = 1;
        TRISC7 = 1;
        TRISC6 = 0;
        CREN = 1;
        TXEN = 1;
        TX9 = 0;
        BRGH = 1;
        RX9 = 0;
        return 1;
    }
    return 0;
}

char UART_TX_Empty() {
    return TRMT;
}

char UART_Data_Ready() {
    return RCIF;
}

char UART_Read() {
    if(OERR)
    {
        CREN = 0;
        CREN = 1;
    }
    while (!RCIF);
    return RCREG;
}


void UART_Read_Text(char *Output, unsigned int length) {
    unsigned int i;
    for (int i = 0; i < length; i++)
        Output[i] = UART_Read();
}

void UART_Write(char data) {
    while (!TRMT);
    TXREG = data;
}

void UART_Write_Text(char *text) {
    int i;
    for (i = 0; text[i] != '\0'; i++)
        UART_Write(text[i]);

}
# 13 "uart_test.c" 2


int i = 1;

void gsm_init(void) {
    TRISB = 0x00;
    UART_Init(115200);
    PORTB = 0xFF;
    _delay((unsigned long)((20000)*(8000000/4000.0)));
    UART_Write_Text("ATE1\r\n");
    _delay((unsigned long)((10)*(8000000/4000.0)));
    UART_Write_Text("AT+CMGF=1\r\n");
    _delay((unsigned long)((300)*(8000000/4000.0)));
    UART_Write_Text("AT+CGATT=1\r\n");
    _delay((unsigned long)((300)*(8000000/4000.0)));
    UART_Write_Text("AT+CIPMUX=0\r\n");
    _delay((unsigned long)((300)*(8000000/4000.0)));
    UART_Write_Text("AT+CSTT= \"internet\"\r\n");
    _delay((unsigned long)((20000)*(8000000/4000.0)));
}

void send_data(char *text){
    TRISB = 0x00;
    UART_Init(115200);
    PORTB = 0b00010000;
    UART_Write_Text("AT\r\n");
    _delay((unsigned long)((10)*(8000000/4000.0)));
    UART_Write_Text("AT+CSTT?\r\n");
    _delay((unsigned long)((20000)*(8000000/4000.0)));
    UART_Write_Text("AT+CIICR\r\n");
    _delay((unsigned long)((20000)*(8000000/4000.0)));
    UART_Write_Text("AT+CIFSR\r\n");
    _delay((unsigned long)((300)*(8000000/4000.0)));
    UART_Write_Text("AT+CIPSTART=\"TCP\",\"dev.finder-lbs.com\",\"9998\"\r\n");
    _delay((unsigned long)((20000)*(8000000/4000.0)));
    UART_Write_Text("AT+CIPSTATUS\r\n");
    _delay((unsigned long)((20000)*(8000000/4000.0)));
    UART_Write_Text("AT+CIPSEND\r\n");
    _delay((unsigned long)((20000)*(8000000/4000.0)));
    UART_Write_Text(text);
    _delay((unsigned long)((300)*(8000000/4000.0)));
    UART_Write('\x1A');
    _delay((unsigned long)((100)*(8000000/4000.0)));
    UART_Write('\r');
    _delay((unsigned long)((100)*(8000000/4000.0)));
    UART_Write_Text("AT+CIPCLOSE\r\n");
    _delay((unsigned long)((300)*(8000000/4000.0)));
}

void main(void) {
    gsm_init();
    while (1) {
        PORTB = 0b00010000;
        if (i<10){
            send_data("AT KAJ Korse");
            PORTB = 0b00000000;
            _delay((unsigned long)((10000)*(8000000/4000.0)));
            PORTB = 0b11111111;
            i++;
        }
    }
}
